<svg width="64" height="64" viewBox="0 0 64 64" fill="none" xmlns="http://www.w3.org/2000/svg">
<path fill-rule="evenodd" clip-rule="evenodd" d="M32 64C49.6731 64 64 49.6731 64 32C64 14.3269 49.6731 0 32 0C14.3269 0 0 14.3269 0 32C0 49.6731 14.3269 64 32 64Z" fill="black" fill-opacity="0.1"/>
<mask id="mask0" mask-type="alpha" maskUnits="userSpaceOnUse" x="8" y="9" width="48" height="55">
<g clip-path="url(#clip0)">
<path d="M32 36.8001C39.575 36.8001 45.7143 30.712 45.7143 23.2001C45.7143 15.6882 39.575 9.6001 32 9.6001C24.425 9.6001 18.2857 15.6882 18.2857 23.2001C18.2857 30.712 24.425 36.8001 32 36.8001ZM41.6 40.2001H39.8107C37.4321 41.2838 34.7857 41.9001 32 41.9001C29.2143 41.9001 26.5786 41.2838 24.1893 40.2001H22.4C14.45 40.2001 8 46.5963 8 54.4801V58.9001C8 61.7157 10.3036 64.0001 13.1429 64.0001H50.8571C53.6964 64.0001 56 61.7157 56 58.9001V54.4801C56 46.5963 49.55 40.2001 41.6 40.2001Z" fill="black"/>
<path d="M45.5 23L35 35.2353C38.2118 37.5864 42.3881 38.1714 46.1222 36.7934L48.0578 36.0791C48.8626 35.7821 48.9872 34.6959 48.2706 34.2244C46.1627 32.8374 44.9688 30.4195 45.149 27.9026L45.5 23Z" fill="white"/>
<path d="M18.5 23L29 35.2353C25.7882 37.5864 21.6119 38.1714 17.8778 36.7934L15.4582 35.9005C14.854 35.6775 14.7604 34.862 15.2985 34.508C17.6725 32.9458 19.0172 30.2227 18.8142 27.3881L18.5 23Z" fill="white"/>
</g>
</mask>
<g mask="url(#mask0)">
<path fill-rule="evenodd" clip-rule="evenodd" d="M32 64C49.6731 64 64 49.6731 64 32C64 14.3269 49.6731 0 32 0C14.3269 0 0 14.3269 0 32C0 49.6731 14.3269 64 32 64Z" fill="white"/>
</g>
<defs>
<clipPath id="clip0">
<rect width="48" height="54.4" fill="white" transform="translate(8 9.6001)"/>
</clipPath>
</defs>
</svg>
